^C:\USERS\DAT10\DESKTOP\WORK\UT_MODELING\UT\BUILD_WIN\MSVC2022\X64\RELEASE\DUMMYMASTER.OBJ|C:\USERS\DAT10\DESKTOP\WORK\UT_MODELING\UT\BUILD_WIN\MSVC2022\X64\RELEASE\DUMMYPERIPHERAL.OBJ|C:\USERS\DAT10\DESKTOP\WORK\UT_MODELING\UT\BUILD_WIN\MSVC2022\X64\RELEASE\PY_DUMMYMASTER.OBJ|C:\USERS\DAT10\DESKTOP\WORK\UT_MODELING\UT\BUILD_WIN\MSVC2022\X64\RELEASE\PY_DUMMYPERIPHERAL.OBJ|C:\USERS\DAT10\DESKTOP\WORK\UT_MODELING\UT\BUILD_WIN\MSVC2022\X64\RELEASE\SHPYTHONAPI.OBJ|C:\USERS\DAT10\DESKTOP\WORK\UT_MODELING\UT\BUILD_WIN\MSVC2022\X64\RELEASE\STM32_GPIO_MAIN.OBJ|C:\USERS\DAT10\DESKTOP\WORK\UT_MODELING\UT\BUILD_WIN\MSVC2022\X64\RELEASE\STM32_GPIO_UT_TOP.OBJ
C:\USERS\DAT10\DESKTOP\WORK\LIBS\PYTHON2.7\LIBS\PYTHON27.LIB
C:\USERS\DAT10\DESKTOP\WORK\LIBS\SYSTEMC-2.3.3\MSVC10\SYSTEMC\X64\RELEASE\SYSTEMC.LIB
C:\USERS\DAT10\DESKTOP\WORK\UT_MODELING\UT\BUILD_WIN\MSVC2022\X64\RELEASE\DUMMYMASTER.OBJ
C:\USERS\DAT10\DESKTOP\WORK\UT_MODELING\UT\BUILD_WIN\MSVC2022\X64\RELEASE\DUMMYPERIPHERAL.OBJ
C:\USERS\DAT10\DESKTOP\WORK\UT_MODELING\UT\BUILD_WIN\MSVC2022\X64\RELEASE\STM32_GPIO_MAIN.OBJ
C:\USERS\DAT10\DESKTOP\WORK\UT_MODELING\UT\BUILD_WIN\MSVC2022\X64\RELEASE\STM32_GPIO_UT_TOP.OBJ
C:\USERS\DAT10\DESKTOP\WORK\UT_MODELING\UT\BUILD_WIN\MSVC2022\X64\RELEASE\PY_DUMMYMASTER.OBJ
C:\USERS\DAT10\DESKTOP\WORK\UT_MODELING\UT\BUILD_WIN\MSVC2022\X64\RELEASE\PY_DUMMYPERIPHERAL.OBJ
C:\USERS\DAT10\DESKTOP\WORK\UT_MODELING\UT\BUILD_WIN\MSVC2022\X64\RELEASE\SHPYTHONAPI.OBJ
C:\PROGRAM FILES\MICROSOFT VISUAL STUDIO\2022\ENTERPRISE\VC\TOOLS\MSVC\14.36.32532\BIN\HOSTX64\X64\1033\LINKUI.DLL
C:\WINDOWS\GLOBALIZATION\SORTING\SORTDEFAULT.NLS
C:\PROGRAM FILES\MICROSOFT VISUAL STUDIO\2022\ENTERPRISE\VC\TOOLS\MSVC\14.36.32532\BIN\HOSTX64\X64\C2.DLL
C:\PROGRAM FILES\MICROSOFT VISUAL STUDIO\2022\ENTERPRISE\VC\TOOLS\MSVC\14.36.32532\LIB\X64\MSVCPRT.LIB
C:\PROGRAM FILES\MICROSOFT VISUAL STUDIO\2022\ENTERPRISE\VC\TOOLS\MSVC\14.36.32532\LIB\X64\MSVCRT.LIB
C:\PROGRAM FILES\MICROSOFT VISUAL STUDIO\2022\ENTERPRISE\VC\TOOLS\MSVC\14.36.32532\LIB\X64\OLDNAMES.LIB
C:\PROGRAM FILES (X86)\WINDOWS KITS\10\LIB\10.0.22000.0\UM\X64\UUID.LIB
C:\PROGRAM FILES (X86)\WINDOWS KITS\10\LIB\10.0.22000.0\UM\X64\KERNEL32.LIB
C:\PROGRAM FILES\MICROSOFT VISUAL STUDIO\2022\ENTERPRISE\VC\TOOLS\MSVC\14.36.32532\LIB\X64\VCRUNTIME.LIB
C:\PROGRAM FILES (X86)\WINDOWS KITS\10\LIB\10.0.22000.0\UCRT\X64\UCRT.LIB
C:\PROGRAM FILES\MICROSOFT VISUAL STUDIO\2022\ENTERPRISE\VC\TOOLS\MSVC\14.36.32532\BIN\HOSTX64\X64\CVTRES.EXE
C:\USERS\DAT10\DESKTOP\WORK\LIBS\SYSTEMC-2.3.3\MSVC10\SYSTEMC\X64\RELEASE\SYSTEMC-2.3.3.PDB
C:\USERS\DAT10\DESKTOP\WORK\LIBS\SYSTEMC-2.3.3\MSVC10\SYSTEMC\X64\RELEASE\SYSTEMC.PDB
C:\USERS\DAT10\DESKTOP\WORK\UT_MODELING\UT\BUILD_WIN\MSVC2022\X64\RELEASE\VC143.PDB
