^C:\USERS\DAT10\DESKTOP\WORK\UT_MODELING\UT\DUMMYMASTER.CPP
^C:\USERS\DAT10\DESKTOP\WORK\UT_MODELING\UT\DUMMYPERIPHERAL.CPP
^C:\USERS\DAT10\DESKTOP\WORK\UT_MODELING\UT\MODEL_UT_TOP.CPP
^C:\USERS\DAT10\DESKTOP\WORK\UT_MODELING\UT\PY_DUMMYMASTER.CPP
^C:\USERS\DAT10\DESKTOP\WORK\UT_MODELING\UT\PY_DUMMYPERIPHERAL.CPP
^C:\USERS\DAT10\DESKTOP\WORK\UT_MODELING\UT\SHPYTHONAPI.CPP
^C:\USERS\DAT10\DESKTOP\WORK\UT_MODELING\UT\MODEL_UT_MAIN.CPP
C:\WINDOWS\GLOBALIZATION\SORTING\SORTDEFAULT.NLS
C:\PROGRAM FILES\MICROSOFT VISUAL STUDIO\2022\ENTERPRISE\VC\TOOLS\MSVC\14.36.32532\BIN\HOSTX64\X64\1033\CLUI.DLL
C:\PROGRAM FILES\MICROSOFT VISUAL STUDIO\2022\ENTERPRISE\VC\TOOLS\MSVC\14.36.32532\INCLUDE\IOSTREAM
C:\PROGRAM FILES\MICROSOFT VISUAL STUDIO\2022\ENTERPRISE\VC\TOOLS\MSVC\14.36.32532\INCLUDE\YVALS_CORE.H
C:\PROGRAM FILES\MICROSOFT VISUAL STUDIO\2022\ENTERPRISE\VC\TOOLS\MSVC\14.36.32532\INCLUDE\VCRUNTIME.H
C:\PROGRAM FILES\MICROSOFT VISUAL STUDIO\2022\ENTERPRISE\VC\TOOLS\MSVC\14.36.32532\INCLUDE\SAL.H
C:\PROGRAM FILES\MICROSOFT VISUAL STUDIO\2022\ENTERPRISE\VC\TOOLS\MSVC\14.36.32532\INCLUDE\CONCURRENCYSAL.H
C:\PROGRAM FILES\MICROSOFT VISUAL STUDIO\2022\ENTERPRISE\VC\TOOLS\MSVC\14.36.32532\INCLUDE\VADEFS.H
C:\PROGRAM FILES\MICROSOFT VISUAL STUDIO\2022\ENTERPRISE\VC\TOOLS\MSVC\14.36.32532\INCLUDE\XKEYCHECK.H
C:\PROGRAM FILES\MICROSOFT VISUAL STUDIO\2022\ENTERPRISE\VC\TOOLS\MSVC\14.36.32532\INCLUDE\ISTREAM
C:\PROGRAM FILES\MICROSOFT VISUAL STUDIO\2022\ENTERPRISE\VC\TOOLS\MSVC\14.36.32532\INCLUDE\OSTREAM
C:\PROGRAM FILES\MICROSOFT VISUAL STUDIO\2022\ENTERPRISE\VC\TOOLS\MSVC\14.36.32532\INCLUDE\IOS
C:\PROGRAM FILES\MICROSOFT VISUAL STUDIO\2022\ENTERPRISE\VC\TOOLS\MSVC\14.36.32532\INCLUDE\XLOCNUM
C:\PROGRAM FILES\MICROSOFT VISUAL STUDIO\2022\ENTERPRISE\VC\TOOLS\MSVC\14.36.32532\INCLUDE\CLIMITS
C:\PROGRAM FILES\MICROSOFT VISUAL STUDIO\2022\ENTERPRISE\VC\TOOLS\MSVC\14.36.32532\INCLUDE\LIMITS.H
C:\PROGRAM FILES\MICROSOFT VISUAL STUDIO\2022\ENTERPRISE\VC\TOOLS\MSVC\14.36.32532\INCLUDE\CMATH
C:\PROGRAM FILES\MICROSOFT VISUAL STUDIO\2022\ENTERPRISE\VC\TOOLS\MSVC\14.36.32532\INCLUDE\YVALS.H
C:\PROGRAM FILES (X86)\WINDOWS KITS\10\INCLUDE\10.0.22000.0\UCRT\CRTDBG.H
C:\PROGRAM FILES (X86)\WINDOWS KITS\10\INCLUDE\10.0.22000.0\UCRT\CORECRT.H
C:\PROGRAM FILES\MICROSOFT VISUAL STUDIO\2022\ENTERPRISE\VC\TOOLS\MSVC\14.36.32532\INCLUDE\VCRUNTIME_NEW_DEBUG.H
C:\PROGRAM FILES\MICROSOFT VISUAL STUDIO\2022\ENTERPRISE\VC\TOOLS\MSVC\14.36.32532\INCLUDE\VCRUNTIME_NEW.H
C:\PROGRAM FILES\MICROSOFT VISUAL STUDIO\2022\ENTERPRISE\VC\TOOLS\MSVC\14.36.32532\INCLUDE\CRTDEFS.H
C:\PROGRAM FILES\MICROSOFT VISUAL STUDIO\2022\ENTERPRISE\VC\TOOLS\MSVC\14.36.32532\INCLUDE\USE_ANSI.H
C:\PROGRAM FILES\MICROSOFT VISUAL STUDIO\2022\ENTERPRISE\VC\TOOLS\MSVC\14.36.32532\INCLUDE\CSTDLIB
C:\PROGRAM FILES (X86)\WINDOWS KITS\10\INCLUDE\10.0.22000.0\UCRT\MATH.H
C:\PROGRAM FILES (X86)\WINDOWS KITS\10\INCLUDE\10.0.22000.0\UCRT\CORECRT_MATH.H
C:\PROGRAM FILES (X86)\WINDOWS KITS\10\INCLUDE\10.0.22000.0\UCRT\STDLIB.H
C:\PROGRAM FILES (X86)\WINDOWS KITS\10\INCLUDE\10.0.22000.0\UCRT\CORECRT_MALLOC.H
C:\PROGRAM FILES (X86)\WINDOWS KITS\10\INCLUDE\10.0.22000.0\UCRT\CORECRT_SEARCH.H
C:\PROGRAM FILES (X86)\WINDOWS KITS\10\INCLUDE\10.0.22000.0\UCRT\STDDEF.H
C:\PROGRAM FILES (X86)\WINDOWS KITS\10\INCLUDE\10.0.22000.0\UCRT\CORECRT_WSTDLIB.H
C:\PROGRAM FILES\MICROSOFT VISUAL STUDIO\2022\ENTERPRISE\VC\TOOLS\MSVC\14.36.32532\INCLUDE\XTR1COMMON
C:\PROGRAM FILES\MICROSOFT VISUAL STUDIO\2022\ENTERPRISE\VC\TOOLS\MSVC\14.36.32532\INCLUDE\INTRIN0.H
C:\PROGRAM FILES\MICROSOFT VISUAL STUDIO\2022\ENTERPRISE\VC\TOOLS\MSVC\14.36.32532\INCLUDE\INTRIN0.INL.H
C:\PROGRAM FILES\MICROSOFT VISUAL STUDIO\2022\ENTERPRISE\VC\TOOLS\MSVC\14.36.32532\INCLUDE\CSTDIO
C:\PROGRAM FILES (X86)\WINDOWS KITS\10\INCLUDE\10.0.22000.0\UCRT\STDIO.H
C:\PROGRAM FILES (X86)\WINDOWS KITS\10\INCLUDE\10.0.22000.0\UCRT\CORECRT_WSTDIO.H
C:\PROGRAM FILES (X86)\WINDOWS KITS\10\INCLUDE\10.0.22000.0\UCRT\CORECRT_STDIO_CONFIG.H
C:\PROGRAM FILES\MICROSOFT VISUAL STUDIO\2022\ENTERPRISE\VC\TOOLS\MSVC\14.36.32532\INCLUDE\ITERATOR
C:\PROGRAM FILES\MICROSOFT VISUAL STUDIO\2022\ENTERPRISE\VC\TOOLS\MSVC\14.36.32532\INCLUDE\IOSFWD
C:\PROGRAM FILES\MICROSOFT VISUAL STUDIO\2022\ENTERPRISE\VC\TOOLS\MSVC\14.36.32532\INCLUDE\CSTRING
C:\PROGRAM FILES (X86)\WINDOWS KITS\10\INCLUDE\10.0.22000.0\UCRT\STRING.H
C:\PROGRAM FILES (X86)\WINDOWS KITS\10\INCLUDE\10.0.22000.0\UCRT\CORECRT_MEMORY.H
C:\PROGRAM FILES (X86)\WINDOWS KITS\10\INCLUDE\10.0.22000.0\UCRT\CORECRT_MEMCPY_S.H
C:\PROGRAM FILES (X86)\WINDOWS KITS\10\INCLUDE\10.0.22000.0\UCRT\ERRNO.H
C:\PROGRAM FILES\MICROSOFT VISUAL STUDIO\2022\ENTERPRISE\VC\TOOLS\MSVC\14.36.32532\INCLUDE\VCRUNTIME_STRING.H
C:\PROGRAM FILES (X86)\WINDOWS KITS\10\INCLUDE\10.0.22000.0\UCRT\CORECRT_WSTRING.H
C:\PROGRAM FILES\MICROSOFT VISUAL STUDIO\2022\ENTERPRISE\VC\TOOLS\MSVC\14.36.32532\INCLUDE\CWCHAR
C:\PROGRAM FILES (X86)\WINDOWS KITS\10\INCLUDE\10.0.22000.0\UCRT\WCHAR.H
C:\PROGRAM FILES (X86)\WINDOWS KITS\10\INCLUDE\10.0.22000.0\UCRT\CORECRT_WCONIO.H
C:\PROGRAM FILES (X86)\WINDOWS KITS\10\INCLUDE\10.0.22000.0\UCRT\CORECRT_WCTYPE.H
C:\PROGRAM FILES (X86)\WINDOWS KITS\10\INCLUDE\10.0.22000.0\UCRT\CORECRT_WDIRECT.H
C:\PROGRAM FILES (X86)\WINDOWS KITS\10\INCLUDE\10.0.22000.0\UCRT\CORECRT_WIO.H
C:\PROGRAM FILES (X86)\WINDOWS KITS\10\INCLUDE\10.0.22000.0\UCRT\CORECRT_SHARE.H
C:\PROGRAM FILES (X86)\WINDOWS KITS\10\INCLUDE\10.0.22000.0\UCRT\CORECRT_WPROCESS.H
C:\PROGRAM FILES (X86)\WINDOWS KITS\10\INCLUDE\10.0.22000.0\UCRT\CORECRT_WTIME.H
C:\PROGRAM FILES (X86)\WINDOWS KITS\10\INCLUDE\10.0.22000.0\UCRT\SYS\STAT.H
C:\PROGRAM FILES (X86)\WINDOWS KITS\10\INCLUDE\10.0.22000.0\UCRT\SYS\TYPES.H
C:\PROGRAM FILES\MICROSOFT VISUAL STUDIO\2022\ENTERPRISE\VC\TOOLS\MSVC\14.36.32532\INCLUDE\XSTDDEF
C:\PROGRAM FILES\MICROSOFT VISUAL STUDIO\2022\ENTERPRISE\VC\TOOLS\MSVC\14.36.32532\INCLUDE\CSTDDEF
C:\PROGRAM FILES\MICROSOFT VISUAL STUDIO\2022\ENTERPRISE\VC\TOOLS\MSVC\14.36.32532\INCLUDE\INITIALIZER_LIST
C:\PROGRAM FILES\MICROSOFT VISUAL STUDIO\2022\ENTERPRISE\VC\TOOLS\MSVC\14.36.32532\INCLUDE\XUTILITY
C:\PROGRAM FILES\MICROSOFT VISUAL STUDIO\2022\ENTERPRISE\VC\TOOLS\MSVC\14.36.32532\INCLUDE\__MSVC_ITER_CORE.HPP
C:\PROGRAM FILES\MICROSOFT VISUAL STUDIO\2022\ENTERPRISE\VC\TOOLS\MSVC\14.36.32532\INCLUDE\UTILITY
C:\PROGRAM FILES\MICROSOFT VISUAL STUDIO\2022\ENTERPRISE\VC\TOOLS\MSVC\14.36.32532\INCLUDE\TYPE_TRAITS
C:\PROGRAM FILES\MICROSOFT VISUAL STUDIO\2022\ENTERPRISE\VC\TOOLS\MSVC\14.36.32532\INCLUDE\CSTDINT
C:\PROGRAM FILES\MICROSOFT VISUAL STUDIO\2022\ENTERPRISE\VC\TOOLS\MSVC\14.36.32532\INCLUDE\STDINT.H
C:\PROGRAM FILES\MICROSOFT VISUAL STUDIO\2022\ENTERPRISE\VC\TOOLS\MSVC\14.36.32532\INCLUDE\STREAMBUF
C:\PROGRAM FILES\MICROSOFT VISUAL STUDIO\2022\ENTERPRISE\VC\TOOLS\MSVC\14.36.32532\INCLUDE\XIOSBASE
C:\PROGRAM FILES (X86)\WINDOWS KITS\10\INCLUDE\10.0.22000.0\UCRT\SHARE.H
C:\PROGRAM FILES\MICROSOFT VISUAL STUDIO\2022\ENTERPRISE\VC\TOOLS\MSVC\14.36.32532\INCLUDE\SYSTEM_ERROR
C:\PROGRAM FILES\MICROSOFT VISUAL STUDIO\2022\ENTERPRISE\VC\TOOLS\MSVC\14.36.32532\INCLUDE\__MSVC_SYSTEM_ERROR_ABI.HPP
C:\PROGRAM FILES\MICROSOFT VISUAL STUDIO\2022\ENTERPRISE\VC\TOOLS\MSVC\14.36.32532\INCLUDE\CERRNO
C:\PROGRAM FILES\MICROSOFT VISUAL STUDIO\2022\ENTERPRISE\VC\TOOLS\MSVC\14.36.32532\INCLUDE\STDEXCEPT
C:\PROGRAM FILES\MICROSOFT VISUAL STUDIO\2022\ENTERPRISE\VC\TOOLS\MSVC\14.36.32532\INCLUDE\EXCEPTION
C:\PROGRAM FILES (X86)\WINDOWS KITS\10\INCLUDE\10.0.22000.0\UCRT\MALLOC.H
C:\PROGRAM FILES\MICROSOFT VISUAL STUDIO\2022\ENTERPRISE\VC\TOOLS\MSVC\14.36.32532\INCLUDE\VCRUNTIME_EXCEPTION.H
C:\PROGRAM FILES\MICROSOFT VISUAL STUDIO\2022\ENTERPRISE\VC\TOOLS\MSVC\14.36.32532\INCLUDE\EH.H
C:\PROGRAM FILES (X86)\WINDOWS KITS\10\INCLUDE\10.0.22000.0\UCRT\CORECRT_TERMINATE.H
C:\PROGRAM FILES\MICROSOFT VISUAL STUDIO\2022\ENTERPRISE\VC\TOOLS\MSVC\14.36.32532\INCLUDE\XSTRING
C:\PROGRAM FILES\MICROSOFT VISUAL STUDIO\2022\ENTERPRISE\VC\TOOLS\MSVC\14.36.32532\INCLUDE\XMEMORY
C:\PROGRAM FILES\MICROSOFT VISUAL STUDIO\2022\ENTERPRISE\VC\TOOLS\MSVC\14.36.32532\INCLUDE\LIMITS
C:\PROGRAM FILES\MICROSOFT VISUAL STUDIO\2022\ENTERPRISE\VC\TOOLS\MSVC\14.36.32532\INCLUDE\CFLOAT
C:\PROGRAM FILES (X86)\WINDOWS KITS\10\INCLUDE\10.0.22000.0\UCRT\FLOAT.H
C:\PROGRAM FILES\MICROSOFT VISUAL STUDIO\2022\ENTERPRISE\VC\TOOLS\MSVC\14.36.32532\INCLUDE\ISA_AVAILABILITY.H
C:\PROGRAM FILES\MICROSOFT VISUAL STUDIO\2022\ENTERPRISE\VC\TOOLS\MSVC\14.36.32532\INCLUDE\NEW
C:\PROGRAM FILES\MICROSOFT VISUAL STUDIO\2022\ENTERPRISE\VC\TOOLS\MSVC\14.36.32532\INCLUDE\XATOMIC.H
C:\PROGRAM FILES\MICROSOFT VISUAL STUDIO\2022\ENTERPRISE\VC\TOOLS\MSVC\14.36.32532\INCLUDE\__MSVC_SANITIZER_ANNOTATE_CONTAINER.HPP
C:\PROGRAM FILES\MICROSOFT VISUAL STUDIO\2022\ENTERPRISE\VC\TOOLS\MSVC\14.36.32532\INCLUDE\XCALL_ONCE.H
C:\PROGRAM FILES\MICROSOFT VISUAL STUDIO\2022\ENTERPRISE\VC\TOOLS\MSVC\14.36.32532\INCLUDE\XERRC.H
C:\PROGRAM FILES\MICROSOFT VISUAL STUDIO\2022\ENTERPRISE\VC\TOOLS\MSVC\14.36.32532\INCLUDE\ATOMIC
C:\PROGRAM FILES\MICROSOFT VISUAL STUDIO\2022\ENTERPRISE\VC\TOOLS\MSVC\14.36.32532\INCLUDE\XTHREADS.H
C:\PROGRAM FILES\MICROSOFT VISUAL STUDIO\2022\ENTERPRISE\VC\TOOLS\MSVC\14.36.32532\INCLUDE\XTIMEC.H
C:\PROGRAM FILES\MICROSOFT VISUAL STUDIO\2022\ENTERPRISE\VC\TOOLS\MSVC\14.36.32532\INCLUDE\CTIME
C:\PROGRAM FILES (X86)\WINDOWS KITS\10\INCLUDE\10.0.22000.0\UCRT\TIME.H
C:\PROGRAM FILES\MICROSOFT VISUAL STUDIO\2022\ENTERPRISE\VC\TOOLS\MSVC\14.36.32532\INCLUDE\XLOCALE
C:\PROGRAM FILES\MICROSOFT VISUAL STUDIO\2022\ENTERPRISE\VC\TOOLS\MSVC\14.36.32532\INCLUDE\MEMORY
C:\PROGRAM FILES\MICROSOFT VISUAL STUDIO\2022\ENTERPRISE\VC\TOOLS\MSVC\14.36.32532\INCLUDE\TYPEINFO
C:\PROGRAM FILES\MICROSOFT VISUAL STUDIO\2022\ENTERPRISE\VC\TOOLS\MSVC\14.36.32532\INCLUDE\VCRUNTIME_TYPEINFO.H
C:\PROGRAM FILES\MICROSOFT VISUAL STUDIO\2022\ENTERPRISE\VC\TOOLS\MSVC\14.36.32532\INCLUDE\XFACET
C:\PROGRAM FILES\MICROSOFT VISUAL STUDIO\2022\ENTERPRISE\VC\TOOLS\MSVC\14.36.32532\INCLUDE\XLOCINFO
C:\PROGRAM FILES\MICROSOFT VISUAL STUDIO\2022\ENTERPRISE\VC\TOOLS\MSVC\14.36.32532\INCLUDE\__MSVC_XLOCINFO_TYPES.HPP
C:\PROGRAM FILES\MICROSOFT VISUAL STUDIO\2022\ENTERPRISE\VC\TOOLS\MSVC\14.36.32532\INCLUDE\CCTYPE
C:\PROGRAM FILES (X86)\WINDOWS KITS\10\INCLUDE\10.0.22000.0\UCRT\CTYPE.H
C:\PROGRAM FILES\MICROSOFT VISUAL STUDIO\2022\ENTERPRISE\VC\TOOLS\MSVC\14.36.32532\INCLUDE\CLOCALE
C:\PROGRAM FILES (X86)\WINDOWS KITS\10\INCLUDE\10.0.22000.0\UCRT\LOCALE.H
C:\USERS\DAT10\DESKTOP\WORK\UT_MODELING\UT\MODEL_UT_MAIN.H
C:\USERS\DAT10\DESKTOP\WORK\LIBS\SYSTEMC-2.3.3\SRC\SYSTEMC.H
C:\PROGRAM FILES\MICROSOFT VISUAL STUDIO\2022\ENTERPRISE\VC\TOOLS\MSVC\14.36.32532\INCLUDE\CASSERT
C:\PROGRAM FILES (X86)\WINDOWS KITS\10\INCLUDE\10.0.22000.0\UCRT\ASSERT.H
C:\PROGRAM FILES\MICROSOFT VISUAL STUDIO\2022\ENTERPRISE\VC\TOOLS\MSVC\14.36.32532\INCLUDE\FSTREAM
C:\PROGRAM FILES\MICROSOFT VISUAL STUDIO\2022\ENTERPRISE\VC\TOOLS\MSVC\14.36.32532\INCLUDE\STRING
C:\PROGRAM FILES\MICROSOFT VISUAL STUDIO\2022\ENTERPRISE\VC\TOOLS\MSVC\14.36.32532\INCLUDE\VECTOR
C:\USERS\DAT10\DESKTOP\WORK\LIBS\SYSTEMC-2.3.3\SRC\SYSTEMC
C:\USERS\DAT10\DESKTOP\WORK\LIBS\SYSTEMC-2.3.3\SRC\SYSC\KERNEL\SC_CMNHDR.H
C:\USERS\DAT10\DESKTOP\WORK\LIBS\SYSTEMC-2.3.3\SRC\SYSC\KERNEL\SC_EXTERNS.H
C:\USERS\DAT10\DESKTOP\WORK\LIBS\SYSTEMC-2.3.3\SRC\SYSC\KERNEL\SC_EXCEPT.H
C:\USERS\DAT10\DESKTOP\WORK\LIBS\SYSTEMC-2.3.3\SRC\SYSC\KERNEL\SC_MODULE.H
C:\USERS\DAT10\DESKTOP\WORK\LIBS\SYSTEMC-2.3.3\SRC\SYSC\KERNEL\SC_KERNEL_IDS.H
C:\USERS\DAT10\DESKTOP\WORK\LIBS\SYSTEMC-2.3.3\SRC\SYSC\UTILS\SC_REPORT.H
C:\USERS\DAT10\DESKTOP\WORK\LIBS\SYSTEMC-2.3.3\SRC\SYSC\UTILS\SC_REPORT_HANDLER.H
C:\USERS\DAT10\DESKTOP\WORK\LIBS\SYSTEMC-2.3.3\SRC\SYSC\KERNEL\SC_PROCESS.H
C:\USERS\DAT10\DESKTOP\WORK\LIBS\SYSTEMC-2.3.3\SRC\SYSC\KERNEL\SC_CONSTANTS.H
C:\USERS\DAT10\DESKTOP\WORK\LIBS\SYSTEMC-2.3.3\SRC\SYSC\KERNEL\SC_OBJECT.H
C:\USERS\DAT10\DESKTOP\WORK\LIBS\SYSTEMC-2.3.3\SRC\SYSC\KERNEL\SC_ATTRIBUTE.H
C:\USERS\DAT10\DESKTOP\WORK\LIBS\SYSTEMC-2.3.3\SRC\SYSC\COMMUNICATION\SC_EXPORT.H
C:\USERS\DAT10\DESKTOP\WORK\LIBS\SYSTEMC-2.3.3\SRC\SYSC\COMMUNICATION\SC_COMMUNICATION_IDS.H
C:\USERS\DAT10\DESKTOP\WORK\LIBS\SYSTEMC-2.3.3\SRC\SYSC\COMMUNICATION\SC_INTERFACE.H
C:\USERS\DAT10\DESKTOP\WORK\LIBS\SYSTEMC-2.3.3\SRC\SYSC\UTILS\SC_TYPEINDEX.H
C:\PROGRAM FILES\MICROSOFT VISUAL STUDIO\2022\ENTERPRISE\VC\TOOLS\MSVC\14.36.32532\INCLUDE\TYPEINDEX
C:\USERS\DAT10\DESKTOP\WORK\LIBS\SYSTEMC-2.3.3\SRC\SYSC\KERNEL\SC_MODULE_NAME.H
C:\USERS\DAT10\DESKTOP\WORK\LIBS\SYSTEMC-2.3.3\SRC\SYSC\KERNEL\SC_SENSITIVE.H
C:\USERS\DAT10\DESKTOP\WORK\LIBS\SYSTEMC-2.3.3\SRC\SYSC\KERNEL\SC_TIME.H
C:\USERS\DAT10\DESKTOP\WORK\LIBS\SYSTEMC-2.3.3\SRC\SYSC\DATATYPES\INT\SC_NBDEFS.H
C:\USERS\DAT10\DESKTOP\WORK\LIBS\SYSTEMC-2.3.3\SRC\SYSC\DATATYPES\FX\SCFX_IEEE.H
C:\USERS\DAT10\DESKTOP\WORK\LIBS\SYSTEMC-2.3.3\SRC\SYSC\DATATYPES\FX\SC_FXDEFS.H
C:\USERS\DAT10\DESKTOP\WORK\LIBS\SYSTEMC-2.3.3\SRC\SYSC\UTILS\SC_MACHINE.H
C:\USERS\DAT10\DESKTOP\WORK\LIBS\SYSTEMC-2.3.3\SRC\SYSC\PACKAGES\BOOST\DETAIL\ENDIAN.HPP
C:\USERS\DAT10\DESKTOP\WORK\LIBS\SYSTEMC-2.3.3\SRC\SYSC\DATATYPES\FX\SC_FX_IDS.H
C:\USERS\DAT10\DESKTOP\WORK\LIBS\SYSTEMC-2.3.3\SRC\SYSC\DATATYPES\INT\SC_NBUTILS.H
C:\USERS\DAT10\DESKTOP\WORK\LIBS\SYSTEMC-2.3.3\SRC\SYSC\DATATYPES\BIT\SC_BIT_IDS.H
C:\USERS\DAT10\DESKTOP\WORK\LIBS\SYSTEMC-2.3.3\SRC\SYSC\DATATYPES\INT\SC_INT_IDS.H
C:\USERS\DAT10\DESKTOP\WORK\LIBS\SYSTEMC-2.3.3\SRC\SYSC\KERNEL\SC_WAIT.H
C:\USERS\DAT10\DESKTOP\WORK\LIBS\SYSTEMC-2.3.3\SRC\SYSC\KERNEL\SC_SIMCONTEXT.H
C:\USERS\DAT10\DESKTOP\WORK\LIBS\SYSTEMC-2.3.3\SRC\SYSC\KERNEL\SC_STATUS.H
C:\USERS\DAT10\DESKTOP\WORK\LIBS\SYSTEMC-2.3.3\SRC\SYSC\UTILS\SC_HASH.H
C:\USERS\DAT10\DESKTOP\WORK\LIBS\SYSTEMC-2.3.3\SRC\SYSC\UTILS\SC_PQ.H
C:\USERS\DAT10\DESKTOP\WORK\LIBS\SYSTEMC-2.3.3\SRC\SYSC\KERNEL\SC_WAIT_CTHREAD.H
C:\USERS\DAT10\DESKTOP\WORK\LIBS\SYSTEMC-2.3.3\SRC\SYSC\DATATYPES\BIT\SC_LOGIC.H
C:\USERS\DAT10\DESKTOP\WORK\LIBS\SYSTEMC-2.3.3\SRC\SYSC\KERNEL\SC_MACROS.H
C:\USERS\DAT10\DESKTOP\WORK\LIBS\SYSTEMC-2.3.3\SRC\SYSC\UTILS\SC_MEMPOOL.H
C:\USERS\DAT10\DESKTOP\WORK\LIBS\SYSTEMC-2.3.3\SRC\SYSC\DATATYPES\BIT\SC_BIT.H
C:\USERS\DAT10\DESKTOP\WORK\LIBS\SYSTEMC-2.3.3\SRC\SYSC\KERNEL\SC_PROCESS_HANDLE.H
C:\USERS\DAT10\DESKTOP\WORK\LIBS\SYSTEMC-2.3.3\SRC\SYSC\UTILS\SC_LIST.H
C:\USERS\DAT10\DESKTOP\WORK\LIBS\SYSTEMC-2.3.3\SRC\SYSC\KERNEL\SC_VER.H
C:\USERS\DAT10\DESKTOP\WORK\LIBS\SYSTEMC-2.3.3\SRC\SYSC\COMMUNICATION\SC_WRITER_POLICY.H
C:\USERS\DAT10\DESKTOP\WORK\LIBS\SYSTEMC-2.3.3\SRC\SYSC\COMMUNICATION\SC_BUFFER.H
C:\USERS\DAT10\DESKTOP\WORK\LIBS\SYSTEMC-2.3.3\SRC\SYSC\COMMUNICATION\SC_SIGNAL.H
C:\USERS\DAT10\DESKTOP\WORK\LIBS\SYSTEMC-2.3.3\SRC\SYSC\COMMUNICATION\SC_PORT.H
C:\USERS\DAT10\DESKTOP\WORK\LIBS\SYSTEMC-2.3.3\SRC\SYSC\KERNEL\SC_EVENT.H
C:\USERS\DAT10\DESKTOP\WORK\LIBS\SYSTEMC-2.3.3\SRC\SYSC\COMMUNICATION\SC_PRIM_CHANNEL.H
C:\USERS\DAT10\DESKTOP\WORK\LIBS\SYSTEMC-2.3.3\SRC\SYSC\COMMUNICATION\SC_SIGNAL_IFS.H
C:\USERS\DAT10\DESKTOP\WORK\LIBS\SYSTEMC-2.3.3\SRC\SYSC\TRACING\SC_TRACE.H
C:\USERS\DAT10\DESKTOP\WORK\LIBS\SYSTEMC-2.3.3\SRC\SYSC\COMMUNICATION\SC_CLOCK.H
C:\USERS\DAT10\DESKTOP\WORK\LIBS\SYSTEMC-2.3.3\SRC\SYSC\COMMUNICATION\SC_CLOCK_PORTS.H
C:\USERS\DAT10\DESKTOP\WORK\LIBS\SYSTEMC-2.3.3\SRC\SYSC\COMMUNICATION\SC_SIGNAL_PORTS.H
C:\USERS\DAT10\DESKTOP\WORK\LIBS\SYSTEMC-2.3.3\SRC\SYSC\COMMUNICATION\SC_EVENT_FINDER.H
C:\USERS\DAT10\DESKTOP\WORK\LIBS\SYSTEMC-2.3.3\SRC\SYSC\COMMUNICATION\SC_EVENT_QUEUE.H
C:\USERS\DAT10\DESKTOP\WORK\LIBS\SYSTEMC-2.3.3\SRC\SYSC\COMMUNICATION\SC_FIFO.H
C:\USERS\DAT10\DESKTOP\WORK\LIBS\SYSTEMC-2.3.3\SRC\SYSC\COMMUNICATION\SC_FIFO_IFS.H
C:\USERS\DAT10\DESKTOP\WORK\LIBS\SYSTEMC-2.3.3\SRC\SYSC\COMMUNICATION\SC_FIFO_PORTS.H
C:\USERS\DAT10\DESKTOP\WORK\LIBS\SYSTEMC-2.3.3\SRC\SYSC\COMMUNICATION\SC_MUTEX.H
C:\USERS\DAT10\DESKTOP\WORK\LIBS\SYSTEMC-2.3.3\SRC\SYSC\COMMUNICATION\SC_MUTEX_IF.H
C:\USERS\DAT10\DESKTOP\WORK\LIBS\SYSTEMC-2.3.3\SRC\SYSC\COMMUNICATION\SC_SEMAPHORE.H
C:\USERS\DAT10\DESKTOP\WORK\LIBS\SYSTEMC-2.3.3\SRC\SYSC\COMMUNICATION\SC_SEMAPHORE_IF.H
C:\USERS\DAT10\DESKTOP\WORK\LIBS\SYSTEMC-2.3.3\SRC\SYSC\COMMUNICATION\SC_SIGNAL_RESOLVED.H
C:\USERS\DAT10\DESKTOP\WORK\LIBS\SYSTEMC-2.3.3\SRC\SYSC\COMMUNICATION\SC_SIGNAL_RESOLVED_PORTS.H
C:\USERS\DAT10\DESKTOP\WORK\LIBS\SYSTEMC-2.3.3\SRC\SYSC\COMMUNICATION\SC_SIGNAL_RV.H
C:\USERS\DAT10\DESKTOP\WORK\LIBS\SYSTEMC-2.3.3\SRC\SYSC\DATATYPES\BIT\SC_LV.H
C:\USERS\DAT10\DESKTOP\WORK\LIBS\SYSTEMC-2.3.3\SRC\SYSC\DATATYPES\BIT\SC_LV_BASE.H
C:\USERS\DAT10\DESKTOP\WORK\LIBS\SYSTEMC-2.3.3\SRC\SYSC\DATATYPES\BIT\SC_BV_BASE.H
C:\USERS\DAT10\DESKTOP\WORK\LIBS\SYSTEMC-2.3.3\SRC\SYSC\DATATYPES\BIT\SC_BIT_PROXIES.H
C:\USERS\DAT10\DESKTOP\WORK\LIBS\SYSTEMC-2.3.3\SRC\SYSC\DATATYPES\BIT\SC_PROXY.H
C:\USERS\DAT10\DESKTOP\WORK\LIBS\SYSTEMC-2.3.3\SRC\SYSC\DATATYPES\INT\SC_SIGNED.H
C:\USERS\DAT10\DESKTOP\WORK\LIBS\SYSTEMC-2.3.3\SRC\SYSC\DATATYPES\MISC\SC_VALUE_BASE.H
C:\USERS\DAT10\DESKTOP\WORK\LIBS\SYSTEMC-2.3.3\SRC\SYSC\UTILS\SC_TEMPORARY.H
C:\USERS\DAT10\DESKTOP\WORK\LIBS\SYSTEMC-2.3.3\SRC\SYSC\DATATYPES\INT\SC_LENGTH_PARAM.H
C:\USERS\DAT10\DESKTOP\WORK\LIBS\SYSTEMC-2.3.3\SRC\SYSC\DATATYPES\FX\SC_CONTEXT.H
C:\USERS\DAT10\DESKTOP\WORK\LIBS\SYSTEMC-2.3.3\SRC\SYSC\DATATYPES\INT\SC_NBEXTERNS.H
C:\USERS\DAT10\DESKTOP\WORK\LIBS\SYSTEMC-2.3.3\SRC\SYSC\DATATYPES\INT\SC_UNSIGNED.H
C:\USERS\DAT10\DESKTOP\WORK\LIBS\SYSTEMC-2.3.3\SRC\SYSC\DATATYPES\INT\SC_INT_BASE.H
C:\USERS\DAT10\DESKTOP\WORK\LIBS\SYSTEMC-2.3.3\SRC\SYSC\DATATYPES\INT\SC_UINT_BASE.H
C:\USERS\DAT10\DESKTOP\WORK\LIBS\SYSTEMC-2.3.3\SRC\SYSC\COMMUNICATION\SC_SIGNAL_RV_PORTS.H
C:\USERS\DAT10\DESKTOP\WORK\LIBS\SYSTEMC-2.3.3\SRC\SYSC\DATATYPES\BIT\SC_BV.H
C:\USERS\DAT10\DESKTOP\WORK\LIBS\SYSTEMC-2.3.3\SRC\SYSC\DATATYPES\INT\SC_BIGINT.H
C:\USERS\DAT10\DESKTOP\WORK\LIBS\SYSTEMC-2.3.3\SRC\SYSC\DATATYPES\INT\SC_BIGUINT.H
C:\USERS\DAT10\DESKTOP\WORK\LIBS\SYSTEMC-2.3.3\SRC\SYSC\DATATYPES\INT\SC_INT.H
C:\USERS\DAT10\DESKTOP\WORK\LIBS\SYSTEMC-2.3.3\SRC\SYSC\DATATYPES\INT\SC_UINT.H
C:\USERS\DAT10\DESKTOP\WORK\LIBS\SYSTEMC-2.3.3\SRC\SYSC\DATATYPES\MISC\SC_CONCATREF.H
C:\USERS\DAT10\DESKTOP\WORK\LIBS\SYSTEMC-2.3.3\SRC\SYSC\UTILS\SC_UTILS_IDS.H
C:\USERS\DAT10\DESKTOP\WORK\LIBS\SYSTEMC-2.3.3\SRC\SYSC\UTILS\SC_PVECTOR.H
C:\USERS\DAT10\DESKTOP\WORK\LIBS\SYSTEMC-2.3.3\SRC\SYSC\UTILS\SC_STRING_VIEW.H
C:\USERS\DAT10\DESKTOP\WORK\LIBS\SYSTEMC-2.3.3\SRC\SYSC\PACKAGES\BOOST\UTILITY\STRING_VIEW.HPP
C:\USERS\DAT10\DESKTOP\WORK\LIBS\SYSTEMC-2.3.3\SRC\SYSC\PACKAGES\BOOST\CONFIG.HPP
C:\USERS\DAT10\DESKTOP\WORK\LIBS\SYSTEMC-2.3.3\SRC\SYSC\PACKAGES\BOOST\CONFIG\USER.HPP
C:\USERS\DAT10\DESKTOP\WORK\LIBS\SYSTEMC-2.3.3\SRC\SYSC\PACKAGES\BOOST\CONFIG\SELECT_COMPILER_CONFIG.HPP
C:\USERS\DAT10\DESKTOP\WORK\LIBS\SYSTEMC-2.3.3\SRC\SYSC\PACKAGES\BOOST\CONFIG\COMPILER\VISUALC.HPP
C:\USERS\DAT10\DESKTOP\WORK\LIBS\SYSTEMC-2.3.3\SRC\SYSC\PACKAGES\BOOST\CONFIG\SELECT_STDLIB_CONFIG.HPP
C:\USERS\DAT10\DESKTOP\WORK\LIBS\SYSTEMC-2.3.3\SRC\SYSC\PACKAGES\BOOST\CONFIG\STDLIB\DINKUMWARE.HPP
C:\USERS\DAT10\DESKTOP\WORK\LIBS\SYSTEMC-2.3.3\SRC\SYSC\PACKAGES\BOOST\CONFIG\SELECT_PLATFORM_CONFIG.HPP
C:\USERS\DAT10\DESKTOP\WORK\LIBS\SYSTEMC-2.3.3\SRC\SYSC\PACKAGES\BOOST\CONFIG\PLATFORM\WIN32.HPP
C:\USERS\DAT10\DESKTOP\WORK\LIBS\SYSTEMC-2.3.3\SRC\SYSC\PACKAGES\BOOST\CONFIG\SUFFIX.HPP
C:\USERS\DAT10\DESKTOP\WORK\LIBS\SYSTEMC-2.3.3\SRC\SYSC\PACKAGES\BOOST\UTILITY\STRING_VIEW_FWD.HPP
C:\PROGRAM FILES\MICROSOFT VISUAL STUDIO\2022\ENTERPRISE\VC\TOOLS\MSVC\14.36.32532\INCLUDE\ALGORITHM
C:\USERS\DAT10\DESKTOP\WORK\LIBS\SYSTEMC-2.3.3\SRC\SYSC\UTILS\SC_VECTOR.H
C:\USERS\DAT10\DESKTOP\WORK\LIBS\PYTHON2.7\INCLUDE\PYTHON.H
C:\USERS\DAT10\DESKTOP\WORK\LIBS\PYTHON2.7\INCLUDE\PATCHLEVEL.H
C:\USERS\DAT10\DESKTOP\WORK\LIBS\PYTHON2.7\INCLUDE\PYCONFIG.H
C:\PROGRAM FILES (X86)\WINDOWS KITS\10\INCLUDE\10.0.22000.0\UCRT\IO.H
C:\PROGRAM FILES (X86)\WINDOWS KITS\10\INCLUDE\10.0.22000.0\UCRT\CORECRT_IO.H
C:\PROGRAM FILES (X86)\WINDOWS KITS\10\INCLUDE\10.0.22000.0\SHARED\BASETSD.H
C:\USERS\DAT10\DESKTOP\WORK\LIBS\PYTHON2.7\INCLUDE\PYMACCONFIG.H
C:\USERS\DAT10\DESKTOP\WORK\LIBS\PYTHON2.7\INCLUDE\PYPORT.H
C:\USERS\DAT10\DESKTOP\WORK\LIBS\PYTHON2.7\INCLUDE\PYMATH.H
C:\USERS\DAT10\DESKTOP\WORK\LIBS\PYTHON2.7\INCLUDE\PYMEM.H
C:\USERS\DAT10\DESKTOP\WORK\LIBS\PYTHON2.7\INCLUDE\OBJECT.H
C:\USERS\DAT10\DESKTOP\WORK\LIBS\PYTHON2.7\INCLUDE\OBJIMPL.H
C:\USERS\DAT10\DESKTOP\WORK\LIBS\PYTHON2.7\INCLUDE\PYDEBUG.H
C:\USERS\DAT10\DESKTOP\WORK\LIBS\PYTHON2.7\INCLUDE\UNICODEOBJECT.H
C:\PROGRAM FILES\MICROSOFT VISUAL STUDIO\2022\ENTERPRISE\VC\TOOLS\MSVC\14.36.32532\INCLUDE\STDARG.H
C:\USERS\DAT10\DESKTOP\WORK\LIBS\PYTHON2.7\INCLUDE\INTOBJECT.H
C:\USERS\DAT10\DESKTOP\WORK\LIBS\PYTHON2.7\INCLUDE\BOOLOBJECT.H
C:\USERS\DAT10\DESKTOP\WORK\LIBS\PYTHON2.7\INCLUDE\LONGOBJECT.H
C:\USERS\DAT10\DESKTOP\WORK\LIBS\PYTHON2.7\INCLUDE\FLOATOBJECT.H
C:\USERS\DAT10\DESKTOP\WORK\LIBS\PYTHON2.7\INCLUDE\COMPLEXOBJECT.H
C:\USERS\DAT10\DESKTOP\WORK\LIBS\PYTHON2.7\INCLUDE\RANGEOBJECT.H
C:\USERS\DAT10\DESKTOP\WORK\LIBS\PYTHON2.7\INCLUDE\STRINGOBJECT.H
C:\USERS\DAT10\DESKTOP\WORK\LIBS\PYTHON2.7\INCLUDE\MEMORYOBJECT.H
C:\USERS\DAT10\DESKTOP\WORK\LIBS\PYTHON2.7\INCLUDE\BUFFEROBJECT.H
C:\USERS\DAT10\DESKTOP\WORK\LIBS\PYTHON2.7\INCLUDE\BYTESOBJECT.H
C:\USERS\DAT10\DESKTOP\WORK\LIBS\PYTHON2.7\INCLUDE\BYTEARRAYOBJECT.H
C:\USERS\DAT10\DESKTOP\WORK\LIBS\PYTHON2.7\INCLUDE\TUPLEOBJECT.H
C:\USERS\DAT10\DESKTOP\WORK\LIBS\PYTHON2.7\INCLUDE\LISTOBJECT.H
C:\USERS\DAT10\DESKTOP\WORK\LIBS\PYTHON2.7\INCLUDE\DICTOBJECT.H
C:\USERS\DAT10\DESKTOP\WORK\LIBS\PYTHON2.7\INCLUDE\ENUMOBJECT.H
C:\USERS\DAT10\DESKTOP\WORK\LIBS\PYTHON2.7\INCLUDE\SETOBJECT.H
C:\USERS\DAT10\DESKTOP\WORK\LIBS\PYTHON2.7\INCLUDE\METHODOBJECT.H
C:\USERS\DAT10\DESKTOP\WORK\LIBS\PYTHON2.7\INCLUDE\MODULEOBJECT.H
C:\USERS\DAT10\DESKTOP\WORK\LIBS\PYTHON2.7\INCLUDE\FUNCOBJECT.H
C:\USERS\DAT10\DESKTOP\WORK\LIBS\PYTHON2.7\INCLUDE\CLASSOBJECT.H
C:\USERS\DAT10\DESKTOP\WORK\LIBS\PYTHON2.7\INCLUDE\FILEOBJECT.H
C:\USERS\DAT10\DESKTOP\WORK\LIBS\PYTHON2.7\INCLUDE\COBJECT.H
C:\USERS\DAT10\DESKTOP\WORK\LIBS\PYTHON2.7\INCLUDE\PYCAPSULE.H
C:\USERS\DAT10\DESKTOP\WORK\LIBS\PYTHON2.7\INCLUDE\TRACEBACK.H
C:\USERS\DAT10\DESKTOP\WORK\LIBS\PYTHON2.7\INCLUDE\SLICEOBJECT.H
C:\USERS\DAT10\DESKTOP\WORK\LIBS\PYTHON2.7\INCLUDE\CELLOBJECT.H
C:\USERS\DAT10\DESKTOP\WORK\LIBS\PYTHON2.7\INCLUDE\ITEROBJECT.H
C:\USERS\DAT10\DESKTOP\WORK\LIBS\PYTHON2.7\INCLUDE\GENOBJECT.H
C:\USERS\DAT10\DESKTOP\WORK\LIBS\PYTHON2.7\INCLUDE\DESCROBJECT.H
C:\USERS\DAT10\DESKTOP\WORK\LIBS\PYTHON2.7\INCLUDE\WARNINGS.H
C:\USERS\DAT10\DESKTOP\WORK\LIBS\PYTHON2.7\INCLUDE\WEAKREFOBJECT.H
C:\USERS\DAT10\DESKTOP\WORK\LIBS\PYTHON2.7\INCLUDE\CODECS.H
C:\USERS\DAT10\DESKTOP\WORK\LIBS\PYTHON2.7\INCLUDE\PYERRORS.H
C:\USERS\DAT10\DESKTOP\WORK\LIBS\PYTHON2.7\INCLUDE\PYSTATE.H
C:\USERS\DAT10\DESKTOP\WORK\LIBS\PYTHON2.7\INCLUDE\PYARENA.H
C:\USERS\DAT10\DESKTOP\WORK\LIBS\PYTHON2.7\INCLUDE\MODSUPPORT.H
C:\USERS\DAT10\DESKTOP\WORK\LIBS\PYTHON2.7\INCLUDE\PYTHONRUN.H
C:\USERS\DAT10\DESKTOP\WORK\LIBS\PYTHON2.7\INCLUDE\CEVAL.H
C:\USERS\DAT10\DESKTOP\WORK\LIBS\PYTHON2.7\INCLUDE\SYSMODULE.H
C:\USERS\DAT10\DESKTOP\WORK\LIBS\PYTHON2.7\INCLUDE\INTRCHECK.H
C:\USERS\DAT10\DESKTOP\WORK\LIBS\PYTHON2.7\INCLUDE\IMPORT.H
C:\USERS\DAT10\DESKTOP\WORK\LIBS\PYTHON2.7\INCLUDE\ABSTRACT.H
C:\USERS\DAT10\DESKTOP\WORK\LIBS\PYTHON2.7\INCLUDE\COMPILE.H
C:\USERS\DAT10\DESKTOP\WORK\LIBS\PYTHON2.7\INCLUDE\CODE.H
C:\USERS\DAT10\DESKTOP\WORK\LIBS\PYTHON2.7\INCLUDE\EVAL.H
C:\USERS\DAT10\DESKTOP\WORK\LIBS\PYTHON2.7\INCLUDE\PYCTYPE.H
C:\USERS\DAT10\DESKTOP\WORK\LIBS\PYTHON2.7\INCLUDE\PYSTRTOD.H
C:\USERS\DAT10\DESKTOP\WORK\LIBS\PYTHON2.7\INCLUDE\PYSTRCMP.H
C:\USERS\DAT10\DESKTOP\WORK\LIBS\PYTHON2.7\INCLUDE\DTOA.H
C:\USERS\DAT10\DESKTOP\WORK\LIBS\PYTHON2.7\INCLUDE\PYFPE.H
