^C:\USERS\DAT10\DESKTOP\WORK\LIBS\SYSTEMC-2.3.3\MSVC10\SYSTEMC\X64\RELEASE\INT-SYSTEMC\SC_MAIN.OBJ|C:\USERS\DAT10\DESKTOP\WORK\LIBS\SYSTEMC-2.3.3\MSVC10\SYSTEMC\X64\RELEASE\INT-SYSTEMC\SC_MAIN_MAIN.OBJ|C:\USERS\DAT10\DESKTOP\WORK\LIBS\SYSTEMC-2.3.3\MSVC10\SYSTEMC\X64\RELEASE\SYSTEMC-2.3.3.LIB
C:\USERS\DAT10\DESKTOP\WORK\LIBS\SYSTEMC-2.3.3\MSVC10\SYSTEMC\X64\RELEASE\INT-SYSTEMC\SC_MAIN.OBJ
C:\USERS\DAT10\DESKTOP\WORK\LIBS\SYSTEMC-2.3.3\MSVC10\SYSTEMC\X64\RELEASE\INT-SYSTEMC\SC_MAIN_MAIN.OBJ
C:\USERS\DAT10\DESKTOP\WORK\LIBS\SYSTEMC-2.3.3\MSVC10\SYSTEMC\X64\RELEASE\SYSTEMC-2.3.3.LIB
C:\WINDOWS\GLOBALIZATION\SORTING\SORTDEFAULT.NLS
